{
  "type": "Scene",
  "uuid": "",
  "main_layer": 0,
  "events": [
    "btnAdv Clicked"
  ],
  "sound": {
    "file": "",
    "loop_count": -1,
    "delay": 0
  },
  "cursor": {
    "type": "Cursor",
    "file": "image/p1.png",
    "pos": [
      0,
      0
    ]
  },
  "layers": [
    {
      "type": "layer",
      "offset": [
        0,
        0
      ],
      "sprites": [
        {
          "type": "image",
          "image": "image/backg1.png",
          "pos": [
            0,
            0
          ]
        },
        {
          "type": "image",
          "image": "image/title.bmp",
          "pos": [
            105,
            72
          ]
        },
        {
          "type": "button",
          "name": "btnCredit",
          "text": {
            "type": "text",
            "pos": [
              0,
              0
            ],
            "text": "Back",
            "color": [
              255,
              0,
              0
            ]
          },
          "normal": {
            "type": "image",
            "image": "",
            "pos": [
              0,
              0
            ]
          },
          "disabled": {
            "type": "image",
            "image": "",
            "pos": [
              0,
              0
            ]
          },
          "selected": {
            "type": "image",
            "image": "",
            "pos": [
              0,
              0
            ]
          },
          "clicked": {
            "type": "image",
            "image": "",
            "pos": [
              0,
              0
            ]
          },
          "enter_sound": "sound/mikeKick.wav",
          "click_sound": "sound/shot.wav",
          "event": 0,
          "pos": [
            117,
            485
          ],
          "size": [
            200,
            32
          ]
        }
      ]
    }
  ]
}